%YAML 1.1
%TAG !u! tag:unity3d.com,2011:
--- !u!1 &8115930715474772840
GameObject:
  m_ObjectHideFlags: 0
  m_CorrespondingSourceObject: {fileID: 0}
  m_PrefabInstance: {fileID: 0}
  m_PrefabAsset: {fileID: 0}
  serializedVersion: 6
  m_Component:
  - component: {fileID: 8115930715474772836}
  - component: {fileID: 8115930715474772842}
  - component: {fileID: 8115930715474772843}
  - component: {fileID: 1493731997857134767}
  m_Layer: 0
  m_Name: Bonus
  m_TagString: Bonus
  m_Icon: {fileID: 0}
  m_NavMeshLayer: 0
  m_StaticEditorFlags: 0
  m_IsActive: 1
--- !u!4 &8115930715474772836
Transform:
  m_ObjectHideFlags: 0
  m_CorrespondingSourceObject: {fileID: 0}
  m_PrefabInstance: {fileID: 0}
  m_PrefabAsset: {fileID: 0}
  m_GameObject: {fileID: 8115930715474772840}
  m_LocalRotation: {x: 0.5, y: -0.5, z: 0.5, w: 0.5}
  m_LocalPosition: {x: 0, y: 0, z: 45}
  m_LocalScale: {x: 3, y: 3, z: 3}
  m_Children:
  - {fileID: 1710622312870340263}
  m_Father: {fileID: 0}
  m_RootOrder: 0
  m_LocalEulerAnglesHint: {x: 90, y: 0, z: 90}
--- !u!33 &8115930715474772842
MeshFilter:
  m_ObjectHideFlags: 0
  m_CorrespondingSourceObject: {fileID: 0}
  m_PrefabInstance: {fileID: 0}
  m_PrefabAsset: {fileID: 0}
  m_GameObject: {fileID: 8115930715474772840}
  m_Mesh: {fileID: 10202, guid: 0000000000000000e000000000000000, type: 0}
--- !u!23 &8115930715474772843
MeshRenderer:
  m_ObjectHideFlags: 0
  m_CorrespondingSourceObject: {fileID: 0}
  m_PrefabInstance: {fileID: 0}
  m_PrefabAsset: {fileID: 0}
  m_GameObject: {fileID: 8115930715474772840}
  m_Enabled: 0
  m_CastShadows: 1
  m_ReceiveShadows: 1
  m_DynamicOccludee: 1
  m_MotionVectors: 1
  m_LightProbeUsage: 1
  m_ReflectionProbeUsage: 1
  m_RenderingLayerMask: 1
  m_RendererPriority: 0
  m_Materials:
  - {fileID: 0}
  m_StaticBatchInfo:
    firstSubMesh: 0
    subMeshCount: 0
  m_StaticBatchRoot: {fileID: 0}
  m_ProbeAnchor: {fileID: 0}
  m_LightProbeVolumeOverride: {fileID: 0}
  m_ScaleInLightmap: 1
  m_ReceiveGI: 1
  m_PreserveUVs: 0
  m_IgnoreNormalsForChartDetection: 0
  m_ImportantGI: 0
  m_StitchLightmapSeams: 1
  m_SelectedEditorRenderState: 3
  m_MinimumChartSize: 4
  m_AutoUVMaxDistance: 0.5
  m_AutoUVMaxAngle: 89
  m_LightmapParameters: {fileID: 0}
  m_SortingLayerID: 0
  m_SortingLayer: 0
  m_SortingOrder: 0
--- !u!135 &1493731997857134767
SphereCollider:
  m_ObjectHideFlags: 0
  m_CorrespondingSourceObject: {fileID: 0}
  m_PrefabInstance: {fileID: 0}
  m_PrefabAsset: {fileID: 0}
  m_GameObject: {fileID: 8115930715474772840}
  m_Material: {fileID: 0}
  m_IsTrigger: 1
  m_Enabled: 1
  serializedVersion: 2
  m_Radius: 1.9
  m_Center: {x: 0, y: -0.25, z: 0}
--- !u!1001 &3056160549138273054
PrefabInstance:
  m_ObjectHideFlags: 0
  serializedVersion: 2
  m_Modification:
    m_TransformParent: {fileID: 8115930715474772836}
    m_Modifications:
    - target: {fileID: 833071257285789610, guid: 19a8f70fbbc2ddb4584c3ab69e35f930,
        type: 3}
      propertyPath: m_Name
      value: CelluleBlanche
      objectReference: {fileID: 0}
    - target: {fileID: 4455450079994410425, guid: 19a8f70fbbc2ddb4584c3ab69e35f930,
        type: 3}
      propertyPath: m_LocalPosition.x
      value: 0
      objectReference: {fileID: 0}
    - target: {fileID: 4455450079994410425, guid: 19a8f70fbbc2ddb4584c3ab69e35f930,
        type: 3}
      propertyPath: m_LocalPosition.y
      value: 0
      objectReference: {fileID: 0}
    - target: {fileID: 4455450079994410425, guid: 19a8f70fbbc2ddb4584c3ab69e35f930,
        type: 3}
      propertyPath: m_LocalPosition.z
      value: 0
      objectReference: {fileID: 0}
    - target: {fileID: 4455450079994410425, guid: 19a8f70fbbc2ddb4584c3ab69e35f930,
        type: 3}
      propertyPath: m_LocalRotation.x
      value: 0
      objectReference: {fileID: 0}
    - target: {fileID: 4455450079994410425, guid: 19a8f70fbbc2ddb4584c3ab69e35f930,
        type: 3}
      propertyPath: m_LocalRotation.y
      value: 0
      objectReference: {fileID: 0}
    - target: {fileID: 4455450079994410425, guid: 19a8f70fbbc2ddb4584c3ab69e35f930,
        type: 3}
      propertyPath: m_LocalRotation.z
      value: 0
      objectReference: {fileID: 0}
    - target: {fileID: 4455450079994410425, guid: 19a8f70fbbc2ddb4584c3ab69e35f930,
        type: 3}
      propertyPath: m_LocalRotation.w
      value: 1
      objectReference: {fileID: 0}
    - target: {fileID: 4455450079994410425, guid: 19a8f70fbbc2ddb4584c3ab69e35f930,
        type: 3}
      propertyPath: m_RootOrder
      value: 0
      objectReference: {fileID: 0}
    - target: {fileID: 4455450079994410425, guid: 19a8f70fbbc2ddb4584c3ab69e35f930,
        type: 3}
      propertyPath: m_LocalEulerAnglesHint.x
      value: 0
      objectReference: {fileID: 0}
    - target: {fileID: 4455450079994410425, guid: 19a8f70fbbc2ddb4584c3ab69e35f930,
        type: 3}
      propertyPath: m_LocalEulerAnglesHint.y
      value: 0
      objectReference: {fileID: 0}
    - target: {fileID: 4455450079994410425, guid: 19a8f70fbbc2ddb4584c3ab69e35f930,
        type: 3}
      propertyPath: m_LocalEulerAnglesHint.z
      value: 0
      objectReference: {fileID: 0}
    m_RemovedComponents: []
  m_SourcePrefab: {fileID: 100100000, guid: 19a8f70fbbc2ddb4584c3ab69e35f930, type: 3}
--- !u!4 &1710622312870340263 stripped
Transform:
  m_CorrespondingSourceObject: {fileID: 4455450079994410425, guid: 19a8f70fbbc2ddb4584c3ab69e35f930,
    type: 3}
  m_PrefabInstance: {fileID: 3056160549138273054}
  m_PrefabAsset: {fileID: 0}
