%YAML 1.1
%TAG !u! tag:unity3d.com,2011:
--- !u!1045 &1
EditorBuildSettings:
  m_ObjectHideFlags: 0
  serializedVersion: 2
  m_Scenes:
  - enabled: 1
    path: Assets/00_Scenes/StartScene.unity
    guid: 76e5feba2a2b7ed41b48a6c29e346029
  - enabled: 1
    path: Assets/00_Scenes/Level_1_2Players.unity
    guid: 8de0c7e64a033eb48a8a1e4fa524114d
  - enabled: 1
    path: Assets/00_Scenes/Level_1_4Players.unity
    guid: 078f6bb818968534fad6ed76ca653d83
  - enabled: 1
    path: Assets/00_Scenes/Credit_Scene.unity
    guid: 3072eb9fcf7faf8498188f2613cd04b8
  m_configObjects: {}
